4 Load tidyverse & data – Comp112 Journal
…
4.2 summarize

elections |> 
  summarize (mean(county_fips))

  mean(county_fips)
1          30648.09

4.3 group By

elections |> 
  group_by(historical)

# A tibble: 3,109 × 25
# Groups:   historical [3]
   state_name state_abbr historical county_name     county_fips total_votes_20
   <chr>      <chr>      <chr>      <chr>                 <int>          <int>
 1 Alabama    AL         red        Autauga County         1001          27770
 2 Alabama    AL         red        Baldwin County         1003         109679
 3 Alabama    AL         red        Barbour County         1005          10518
 4 Alabama    AL         red        Bibb County            1007           9595
 5 Alabama    AL         red        Blount County          1009          27588
 6 Alabama    AL         red        Bullock County         1011           4613
 7 Alabama    AL         red        Butler County          1013           9488
 8 Alabama    AL         red        Calhoun County         1015          50983
 9 Alabama    AL         red        Chambers County        1017          15284
10 Alabama    AL         red        Cherokee County        1019          12301
# ℹ 3,099 more rows
# ℹ 19 more variables: repub_pct_20 <dbl>, dem_pct_20 <dbl>, winner_20 <chr>,
#   total_votes_16 <int>, repub_pct_16 <dbl>, dem_pct_16 <dbl>,
#   winner_16 <chr>, total_votes_12 <int>, repub_pct_12 <dbl>,
#   dem_pct_12 <dbl>, winner_12 <chr>, total_population <int>,
#   percent_white <int>, percent_black <int>, percent_asian <int>,
#   percent_hispanic <int>, per_capita_income <int>, median_rent <int>, …
…
